%YAML 1.1
%TAG !u! tag:unity3d.com,2011:
--- !u!114 &11400000
MonoBehaviour:
  m_ObjectHideFlags: 0
  m_CorrespondingSourceObject: {fileID: 0}
  m_PrefabInstance: {fileID: 0}
  m_PrefabAsset: {fileID: 0}
  m_GameObject: {fileID: 0}
  m_Enabled: 1
  m_EditorHideFlags: 0
  m_Script: {fileID: 11500000, guid: 468a46d0ae32c3544b7d98094e6448a9, type: 3}
  m_Name: AddressableAssetSettings
  m_EditorClassIdentifier: 
  m_DefaultGroup: d7011a76023efa24b99cad5f7b5af820
  m_OptimizeCatalogSize: 0
  m_BuildRemoteCatalog: 0
  m_BundleLocalCatalog: 0
  m_DisableCatalogUpdateOnStart: 0
  m_UniqueBundleIds: 0
  m_maxConcurrentWebRequests: 500
  m_ContiguousBundles: 0
  m_RemoteCatalogBuildPath:
    m_Id: 
  m_RemoteCatalogLoadPath:
    m_Id: 
  m_overridePlayerVersion: 
  m_GroupAssets:
  - {fileID: 11400000, guid: 8df6b64d6a4160147923aa59f350bc2c, type: 2}
  - {fileID: 11400000, guid: af5c44761574b9c4ea1073b6d4de171c, type: 2}
  m_BuildSettings:
    m_CompileScriptsInVirtualMode: 0
    m_CleanupStreamingAssetsAfterBuilds: 1
    m_LogResourceManagerExceptions: 1
    m_BundleBuildPath: Temp/com.unity.addressables/AssetBundles
  m_ProfileSettings:
    m_Profiles:
    - m_InheritedParent: 
      m_Id: 38d90951e8e6bd144a857e0a142cba54
      m_ProfileName: Default
      m_Values:
      - m_Id: 863642d119cb9fe43a04838b944c792a
        m_Value: '[UnityEditor.EditorUserBuildSettings.activeBuildTarget]'
      - m_Id: ed7fd826991aba54f96541253d637f7c
        m_Value: '[UnityEngine.AddressableAssets.Addressables.BuildPath]/[BuildTarget]'
      - m_Id: 68912720d1bb501478e4794b4fa3d6d7
        m_Value: '{UnityEngine.AddressableAssets.Addressables.RuntimePath}/[BuildTarget]'
      - m_Id: 6137d5136afed3a4db0b225141319a44
        m_Value: ServerData/[BuildTarget]
      - m_Id: 6c42a0872af0c034d88700079ab9c6f9
        m_Value: http://localhost/[BuildTarget]
    m_ProfileEntryNames:
    - m_Id: 863642d119cb9fe43a04838b944c792a
      m_Name: BuildTarget
      m_InlineUsage: 0
    - m_Id: ed7fd826991aba54f96541253d637f7c
      m_Name: LocalBuildPath
      m_InlineUsage: 0
    - m_Id: 68912720d1bb501478e4794b4fa3d6d7
      m_Name: LocalLoadPath
      m_InlineUsage: 0
    - m_Id: 6137d5136afed3a4db0b225141319a44
      m_Name: RemoteBuildPath
      m_InlineUsage: 0
    - m_Id: 6c42a0872af0c034d88700079ab9c6f9
      m_Name: RemoteLoadPath
      m_InlineUsage: 0
    m_ProfileVersion: 1
  m_LabelTable:
    m_LabelNames:
    - default
  m_SchemaTemplates: []
  m_GroupTemplateObjects:
  - {fileID: 11400000, guid: 8a5963b93e208f445ba5949306083948, type: 2}
  m_InitializationObjects: []
  m_CertificateHandlerType:
    m_AssemblyName: 
    m_ClassName: 
  m_ActivePlayerDataBuilderIndex: 3
  m_DataBuilders:
  - {fileID: 11400000, guid: 854217c4a76899e4aba4bf9f2bd72afb, type: 2}
  - {fileID: 11400000, guid: 7085b26c8bd87474e9c931baa4cc7697, type: 2}
  - {fileID: 11400000, guid: 02b5683419595a342bcd249644e31e9f, type: 2}
  - {fileID: 11400000, guid: 055f14a821a533b4eb4f28b6d885ed31, type: 2}
  m_ActiveProfileId: 38d90951e8e6bd144a857e0a142cba54
  m_HostingServicesManager:
    m_HostingServiceInfos: []
    m_Settings: {fileID: 11400000}
    m_NextInstanceId: 0
    m_RegisteredServiceTypeRefs: []
